…
    ## <Analysis/Assess/Total>
    ## <112/38/150>

``` r
iris_train <- training(tidy_split)
iris_test <- testing(tidy_split)

iris_boots <- bootstraps(iris_train, times = 30) 
iris_boots
```

    ## # Bootstrap sampling 
    ## # A tibble: 30 × 2
    ##    splits           id         
    ##    <list>           <chr>      
    ##  1 <split [112/45]> Bootstrap01
    ##  2 <split [112/43]> Bootstrap02
    ##  3 <split [112/39]> Bootstrap03
    ##  4 <split [112/40]> Bootstrap04
    ##  5 <split [112/39]> Bootstrap05
    ##  6 <split [112/41]> Bootstrap06
    ##  7 <split [112/35]> Bootstrap07
    ##  8 <split [112/37]> Bootstrap08
    ##  9 <split [112/42]> Bootstrap09
    ## 10 <split [112/37]> Bootstrap10
    ## # … with 20 more rows
…
``` r
# add the model to the workflow and use iris_boots to fit our model 25 times
glmnet_results <- glmnet_wf %>%
  add_model(glmnet_mod) %>% 
  fit_resamples(
    resamples = iris_boots,
    control = control_resamples(extract = extract_model,
                             save_pred = TRUE)
    )
glmnet_results
```

    ## # Resampling results
    ## # Bootstrap sampling 
    ## # A tibble: 30 × 6
    ##    splits           id          .metrics         .notes   .extracts .predictions
    ##    <list>           <chr>       <list>           <list>   <list>    <list>      
    ##  1 <split [112/45]> Bootstrap01 <tibble [2 × 4]> <tibble> <tibble>  <tibble>    
    ##  2 <split [112/43]> Bootstrap02 <tibble [2 × 4]> <tibble> <tibble>  <tibble>    
    ##  3 <split [112/39]> Bootstrap03 <tibble [2 × 4]> <tibble> <tibble>  <tibble>    
    ##  4 <split [112/40]> Bootstrap04 <tibble [2 × 4]> <tibble> <tibble>  <tibble>    
    ##  5 <split [112/39]> Bootstrap05 <tibble [2 × 4]> <tibble> <tibble>  <tibble>    
    ##  6 <split [112/41]> Bootstrap06 <tibble [2 × 4]> <tibble> <tibble>  <tibble>    
    ##  7 <split [112/35]> Bootstrap07 <tibble [2 × 4]> <tibble> <tibble>  <tibble>    
    ##  8 <split [112/37]> Bootstrap08 <tibble [2 × 4]> <tibble> <tibble>  <tibble>    
    ##  9 <split [112/42]> Bootstrap09 <tibble [2 × 4]> <tibble> <tibble>  <tibble>    
    ## 10 <split [112/37]> Bootstrap10 <tibble [2 × 4]> <tibble> <tibble>  <tibble>    
    ## # … with 20 more rows
…
